{
  "type": "minecraft:entity",
  "pools": [
    {
      "rolls": 1,
      "entries": [
        {
          "type": "minecraft:loot_table",
          "name": "minecraft:entities/reference/mmh/shulker"
        }
      ]
    },
    {
      "rolls": 1,
      "entries": [
        {
          "type": "minecraft:loot_table",
          "name": "minecraft:entities/reference/extra/shulker"
        }
      ]
    },
    {
      "rolls": 1,
      "entries": [
        {
          "type": "minecraft:loot_table",
          "name": "minecraft:entities/reference/extra/shulker"
        }
      ]
    },
    {
      "rolls": 1,
      "entries": [
        {
          "type": "minecraft:alternatives",
          "conditions": [
            {
              "condition": "killed_by_player"
            }
          ],
          "children": [
            {
              "type": "item",
              "name": "minecraft:player_head",
              "functions": [
                {
                  "function": "set_nbt",
                  "tag": "{SkullOwner:{Id:[I;-1374103035,799557006,-1395864132,-219252636],Name:'Shulker',Properties:{textures:[{Value:'eyJ0ZXh0dXJlcyI6eyJTS0lOIjp7InVybCI6Imh0dHA6Ly90ZXh0dXJlcy5taW5lY3JhZnQubmV0L3RleHR1cmUvZGI4MDg5YWE3ZGM5MzQ4MWJmNDg2ODNmYzJiYTVhNjZiYzk2Zjk3ZTY2ZGY0OTdkYjgzMTFhOTg0NDAxNDg4In19fQ=='}]}}}"
                }
              ],
              "conditions": [
                {
                  "condition": "entity_properties",
                  "predicate": {
                    "nbt": "{PersistenceRequired:0b}"
                  },
                  "entity": "this"
                },
                {
                  "condition": "random_chance_with_looting",
                  "chance": 0.008,
                  "looting_multiplier": 0.01
                }
              ]
            },
            {
              "type": "item",
              "name": "minecraft:player_head",
              "functions": [
                {
                  "function": "set_nbt",
                  "tag": "{SkullOwner:{Id:[I;-1328955824,-175813959,-1351054752,-318698460],Name:'Red Shulker',Properties:{textures:[{Value:'eyJ0ZXh0dXJlcyI6eyJTS0lOIjp7InVybCI6Imh0dHA6Ly90ZXh0dXJlcy5taW5lY3JhZnQubmV0L3RleHR1cmUvOGMzMjlhNzg5YWFlNTJiMzg5MWU1NDE1MzEwYzcwNmI4NzAxZTMyNWExMmJmZDM3YmM3NjhhMmVlMjA3YzlkMSJ9fX0='}]}}}"
                }
              ],
              "conditions": [
                {
                  "condition": "entity_properties",
                  "predicate": {
                    "nbt": "{PersistenceRequired:1b, CustomName:\"{\\\"text\\\":\\\"red\\\"}\"}"
                  },
                  "entity": "this"
                }
              ]
            },
            {
              "type": "item",
              "name": "minecraft:player_head",
              "functions": [
                {
                  "function": "set_nbt",
                  "tag": "{SkullOwner:{Id:[I;2108485294,1505968966,-2061749689,-142568748],Name:'Orange Shulker',Properties:{textures:[{Value:'eyJ0ZXh0dXJlcyI6eyJTS0lOIjp7InVybCI6Imh0dHA6Ly90ZXh0dXJlcy5taW5lY3JhZnQubmV0L3RleHR1cmUvYWI5OTRjMTgyNDMxM2JkNTg4YThmNzdjMTRhMDJjYjE2ZjFlODM0YzcwYTQyMDlmZjE4ZGY2ODUyOTYzZGVhZCJ9fX0='}]}}}"
                }
              ],
              "conditions": [
                {
                  "condition": "entity_properties",
                  "predicate": {
                    "nbt": "{PersistenceRequired:1b, CustomName:\"{\\\"text\\\":\\\"orange\\\"}\"}"
                  },
                  "entity": "this"
                }
              ]
            },
            {
              "type": "item",
              "name": "minecraft:player_head",
              "functions": [
                {
                  "function": "set_nbt",
                  "tag": "{SkullOwner:{Id:[I;-145988018,-730250201,-1922333405,-1543690556],Name:'Yellow Shulker',Properties:{textures:[{Value:'eyJ0ZXh0dXJlcyI6eyJTS0lOIjp7InVybCI6Imh0dHA6Ly90ZXh0dXJlcy5taW5lY3JhZnQubmV0L3RleHR1cmUvMTUzM2Q3OGI2OWFhNDFjOWVlMzc4NjMyNTIyNDQ5OWU1NGZiNjFmOTQ4YmJiMjU5OGUxYzhkYWUwOWY2MmJhNiJ9fX0='}]}}}"
                }
              ],
              "conditions": [
                {
                  "condition": "entity_properties",
                  "predicate": {
                    "nbt": "{PersistenceRequired:1b, CustomName:\"{\\\"text\\\":\\\"yellow\\\"}\"}"
                  },
                  "entity": "this"
                }
              ]
            },
            {
              "type": "item",
              "name": "minecraft:player_head",
              "functions": [
                {
                  "function": "set_nbt",
                  "tag": "{SkullOwner:{Id:[I;-1450143908,-2062595538,-1749007080,-304524768],Name:'Lime Shulker',Properties:{textures:[{Value:'eyJ0ZXh0dXJlcyI6eyJTS0lOIjp7InVybCI6Imh0dHA6Ly90ZXh0dXJlcy5taW5lY3JhZnQubmV0L3RleHR1cmUvNDIyOTM2ODcwZDNkODgyMjc5ZTQ1YTU3MWFjYzFkMDI1NTkzZmE4MDU0ZDY0MDFjYWYyNzQ3OTIwMjIwYmIzNSJ9fX0='}]}}}"
                }
              ],
              "conditions": [
                {
                  "condition": "entity_properties",
                  "predicate": {
                    "nbt": "{PersistenceRequired:1b, CustomName:\"{\\\"text\\\":\\\"lime\\\"}\"}"
                  },
                  "entity": "this"
                }
              ]
            },
            {
              "type": "item",
              "name": "minecraft:player_head",
              "functions": [
                {
                  "function": "set_nbt",
                  "tag": "{SkullOwner:{Id:[I;-78580926,134759702,-1618897238,-1237669665],Name:'Green Shulker',Properties:{textures:[{Value:'eyJ0ZXh0dXJlcyI6eyJTS0lOIjp7InVybCI6Imh0dHA6Ly90ZXh0dXJlcy5taW5lY3JhZnQubmV0L3RleHR1cmUvYzM4YmZkNjQ4YjU0ZTFkMWEzYjE0ODljZWY0ZTBlOTZmMzU3NDg5ZmQ0NGJjNmNmOTExMzI2YTAxMmM1ZDRkYiJ9fX0='}]}}}"
                }
              ],
              "conditions": [
                {
                  "condition": "entity_properties",
                  "predicate": {
                    "nbt": "{PersistenceRequired:1b, CustomName:\"{\\\"text\\\":\\\"green\\\"}\"}"
                  },
                  "entity": "this"
                }
              ]
            },
            {
              "type": "item",
              "name": "minecraft:player_head",
              "functions": [
                {
                  "function": "set_nbt",
                  "tag": "{SkullOwner:{Id:[I;-1694331926,-556711595,-1459401942,-1382762718],Name:'Blue Shulker',Properties:{textures:[{Value:'eyJ0ZXh0dXJlcyI6eyJTS0lOIjp7InVybCI6Imh0dHA6Ly90ZXh0dXJlcy5taW5lY3JhZnQubmV0L3RleHR1cmUvMTJkZTg1MDFlODA2MThiN2Y3NzQxYWMyYTk3NTBmZWE3ODJhYTFhMTllNjg3M2E2ZmI4MmJlNzI2NjVjYWNhNSJ9fX0='}]}}}"
                }
              ],
              "conditions": [
                {
                  "condition": "entity_properties",
                  "predicate": {
                    "nbt": "{PersistenceRequired:1b, CustomName:\"{\\\"text\\\":\\\"blue\\\"}\"}"
                  },
                  "entity": "this"
                }
              ]
            },
            {
              "type": "item",
              "name": "minecraft:player_head",
              "functions": [
                {
                  "function": "set_nbt",
                  "tag": "{SkullOwner:{Id:[I;698401114,56052513,-2022850400,1417697788],Name:'Cyan Shulker',Properties:{textures:[{Value:'eyJ0ZXh0dXJlcyI6eyJTS0lOIjp7InVybCI6Imh0dHA6Ly90ZXh0dXJlcy5taW5lY3JhZnQubmV0L3RleHR1cmUvZjA5MmQ3Y2M1NWY1MTlhZDI4ZTBkOTRiZTUxOTVmMjdjYmVmZWM4ZTcyNGNhNDVmMzMxMDZkMTI0ZTc4ZjExYSJ9fX0='}]}}}"
                }
              ],
              "conditions": [
                {
                  "condition": "entity_properties",
                  "predicate": {
                    "nbt": "{PersistenceRequired:1b, CustomName:\"{\\\"text\\\":\\\"cyan\\\"}\"}"
                  },
                  "entity": "this"
                }
              ]
            },
            {
              "type": "item",
              "name": "minecraft:player_head",
              "functions": [
                {
                  "function": "set_nbt",
                  "tag": "{SkullOwner:{Id:[I;-906156655,1884701211,-2030162833,2060267644],Name:'Light Blue Shulker',Properties:{textures:[{Value:'eyJ0ZXh0dXJlcyI6eyJTS0lOIjp7InVybCI6Imh0dHA6Ly90ZXh0dXJlcy5taW5lY3JhZnQubmV0L3RleHR1cmUvYmE1YTEwNTI4OTliMTMyYTA1NjE4NmM1YzQwZTYwYmI5MzYyYWRlYjBhYjQ0M2IzMWVhZTU1OGQwMzUxODA4MyJ9fX0='}]}}}"
                }
              ],
              "conditions": [
                {
                  "condition": "entity_properties",
                  "predicate": {
                    "nbt": "{PersistenceRequired:1b, CustomName:\"{\\\"text\\\":\\\"light blue\\\"}\"}"
                  },
                  "entity": "this"
                }
              ]
            },
            {
              "type": "item",
              "name": "minecraft:player_head",
              "functions": [
                {
                  "function": "set_nbt",
                  "tag": "{SkullOwner:{Id:[I;-1496064988,678382978,-1743437253,-1744425232],Name:'Pink Shulker',Properties:{textures:[{Value:'eyJ0ZXh0dXJlcyI6eyJTS0lOIjp7InVybCI6Imh0dHA6Ly90ZXh0dXJlcy5taW5lY3JhZnQubmV0L3RleHR1cmUvOWZlYWI2MzlkOTBlOTNiZjM0M2U0OTVkOWNjNjA4ZTkxZWUyZGUyOWVjYTMzZDc5OTNjMjBhYTBjOWM5M2NkMCJ9fX0='}]}}}"
                }
              ],
              "conditions": [
                {
                  "condition": "entity_properties",
                  "predicate": {
                    "nbt": "{PersistenceRequired:1b, CustomName:\"{\\\"text\\\":\\\"pink\\\"}\"}"
                  },
                  "entity": "this"
                }
              ]
            },
            {
              "type": "item",
              "name": "minecraft:player_head",
              "functions": [
                {
                  "function": "set_nbt",
                  "tag": "{SkullOwner:{Id:[I;1391878613,-61060829,-1882060901,1329609876],Name:'Magenta Shulker',Properties:{textures:[{Value:'eyJ0ZXh0dXJlcyI6eyJTS0lOIjp7InVybCI6Imh0dHA6Ly90ZXh0dXJlcy5taW5lY3JhZnQubmV0L3RleHR1cmUvM2IzZDM4MWZiYzkyNDk1YzhmNDczOGE4YTA5NmVmOGYyN2Q2MDQ2NjU3NjRiYWY2Yzg1Y2M3MGMyMWIyYTY2MiJ9fX0='}]}}}"
                }
              ],
              "conditions": [
                {
                  "condition": "entity_properties",
                  "predicate": {
                    "nbt": "{PersistenceRequired:1b, CustomName:\"{\\\"text\\\":\\\"magenta\\\"}\"}"
                  },
                  "entity": "this"
                }
              ]
            },
            {
              "type": "item",
              "name": "minecraft:player_head",
              "functions": [
                {
                  "function": "set_nbt",
                  "tag": "{SkullOwner:{Id:[I;805150196,-1672131865,-1466683579,-1033177200],Name:'Purple Shulker',Properties:{textures:[{Value:'eyJ0ZXh0dXJlcyI6eyJTS0lOIjp7InVybCI6Imh0dHA6Ly90ZXh0dXJlcy5taW5lY3JhZnQubmV0L3RleHR1cmUvMjhjZjhiZTI4NWM5NGE1MzA1N2U5YzhmZjMzOGFkN2YzYjIyZDM3ODczMmI2MTU1ZDM4MzYzN2YwM2M3NDA3NSJ9fX0='}]}}}"
                }
              ],
              "conditions": [
                {
                  "condition": "entity_properties",
                  "predicate": {
                    "nbt": "{PersistenceRequired:1b, CustomName:\"{\\\"text\\\":\\\"purple\\\"}\"}"
                  },
                  "entity": "this"
                }
              ]
            },
            {
              "type": "item",
              "name": "minecraft:player_head",
              "functions": [
                {
                  "function": "set_nbt",
                  "tag": "{SkullOwner:{Id:[I;-1630386188,-1976547803,-1360062191,-1376092960],Name:'Brown Shulker',Properties:{textures:[{Value:'eyJ0ZXh0dXJlcyI6eyJTS0lOIjp7InVybCI6Imh0dHA6Ly90ZXh0dXJlcy5taW5lY3JhZnQubmV0L3RleHR1cmUvYmFhZDdhMGE3ZTMwZWMzZmM2OGYzYTRmOGM2ZGZmOTU3MjlmNmYyYzM0NTAzMzU0MWQ4Nzk4NTlhMGE2YjIwYSJ9fX0='}]}}}"
                }
              ],
              "conditions": [
                {
                  "condition": "entity_properties",
                  "predicate": {
                    "nbt": "{PersistenceRequired:1b, CustomName:\"{\\\"text\\\":\\\"brown\\\"}\"}"
                  },
                  "entity": "this"
                }
              ]
            },
            {
              "type": "item",
              "name": "minecraft:player_head",
              "functions": [
                {
                  "function": "set_nbt",
                  "tag": "{SkullOwner:{Id:[I;-816416172,-925482442,-1848367211,1858712636],Name:'Black Shulker',Properties:{textures:[{Value:'eyJ0ZXh0dXJlcyI6eyJTS0lOIjp7InVybCI6Imh0dHA6Ly90ZXh0dXJlcy5taW5lY3JhZnQubmV0L3RleHR1cmUvNWNiYjc4ZmY4MWJkZDY0NjczMzhjMzMwZmQ4MmQxYzAzMzRjMjczZGVmODYxOWRmMzhjMjRiNDg2NDMzNzBmNSJ9fX0='}]}}}"
                }
              ],
              "conditions": [
                {
                  "condition": "entity_properties",
                  "predicate": {
                    "nbt": "{PersistenceRequired:1b, CustomName:\"{\\\"text\\\":\\\"black\\\"}\"}"
                  },
                  "entity": "this"
                }
              ]
            },
            {
              "type": "item",
              "name": "minecraft:player_head",
              "functions": [
                {
                  "function": "set_nbt",
                  "tag": "{SkullOwner:{Id:[I;1729446359,423446074,-1947870783,416575247],Name:'Gray Shulker',Properties:{textures:[{Value:'eyJ0ZXh0dXJlcyI6eyJTS0lOIjp7InVybCI6Imh0dHA6Ly90ZXh0dXJlcy5taW5lY3JhZnQubmV0L3RleHR1cmUvNjg2ZjllMzM3OTZlNDE2NTIyYTE4N2Y3MGRmNTY1ZGY0NjExZjc5MjMwMGQ1ODZhODg4Zjc5MzBjZmU2Zjc4In19fQ=='}]}}}"
                }
              ],
              "conditions": [
                {
                  "condition": "entity_properties",
                  "predicate": {
                    "nbt": "{PersistenceRequired:1b, CustomName:\"{\\\"text\\\":\\\"gray\\\"}\"}"
                  },
                  "entity": "this"
                }
              ]
            },
            {
              "type": "item",
              "name": "minecraft:player_head",
              "functions": [
                {
                  "function": "set_nbt",
                  "tag": "{SkullOwner:{Id:[I;-289085551,471810644,-1094188569,720794084],Name:'Light Gray Shulker',Properties:{textures:[{Value:'eyJ0ZXh0dXJlcyI6eyJTS0lOIjp7InVybCI6Imh0dHA6Ly90ZXh0dXJlcy5taW5lY3JhZnQubmV0L3RleHR1cmUvZmM5ODk3MDk4ODU3MzM1ODRlMTlkYzk0OGIwYTExMzUzOWNjYmZmMzI4MjQ4M2RjODAwODJkMTk2YWIxNmMwIn19fQ=='}]}}}"
                }
              ],
              "conditions": [
                {
                  "condition": "entity_properties",
                  "predicate": {
                    "nbt": "{PersistenceRequired:1b, CustomName:\"{\\\"text\\\":\\\"light gray\\\"}\"}"
                  },
                  "entity": "this"
                }
              ]
            },
            {
              "type": "item",
              "name": "minecraft:player_head",
              "functions": [
                {
                  "function": "set_nbt",
                  "tag": "{SkullOwner:{Id:[I;-362296711,859783624,-2126863856,604565626],Name:'White Shulker',Properties:{textures:[{Value:'eyJ0ZXh0dXJlcyI6eyJTS0lOIjp7InVybCI6Imh0dHA6Ly90ZXh0dXJlcy5taW5lY3JhZnQubmV0L3RleHR1cmUvMjQwNjc5NTY5N2MxYWQ5ZGYxZmVmYzVhMTY2YjBjMDI0MzlmYjYyZDU2Yzc0OTMyZTE3NzA1YTFjOGNmZDJkMiJ9fX0='}]}}}"
                }
              ],
              "conditions": [
                {
                  "condition": "entity_properties",
                  "predicate": {
                    "nbt": "{PersistenceRequired:1b, CustomName:\"{\\\"text\\\":\\\"white\\\"}\"}"
                  },
                  "entity": "this"
                }
              ]
            }
          ]
        }
      ]
    }
  ]
}
